Lecture 8. Titanic case. Let’s kaggle
…
Тепер додамо вартість каюти

train$Fare2 <- '30+'
train$Fare2[train$Fare < 30 & train$Fare >= 20] <- '20-30'
train$Fare2[train$Fare < 20 & train$Fare >= 10] <- '10-20'
train$Fare2[train$Fare < 10] <- '<10'

train %>%
  group_by(Child,Sex,Pclass,Fare2) %>%
  summarise(survived_number = sum(as.numeric(Survived) - 1),
            total = n(),
            percent_survived = survived_number / total) %>%
  arrange(desc(percent_survived))

## # A tibble: 36 x 7
## # Groups:   Child, Sex, Pclass [12]
##    Child Sex    Pclass Fare2 survived_number total percent_survived
##    <dbl> <chr>   <int> <chr>           <dbl> <int>            <dbl>
##  1     0 female      2 30+                 0     7           0     
##  2     1 female      2 10-20               0     3           0     
##  3     1 female      2 20-30               0     5           0     
##  4     1 female      2 30+                 0     4           0     
##  5     1 male        1 30+                 0     4           0     
##  6     1 male        2 30+                 0     3           0     
##  7     0 female      1 30+                -1    80          -0.0125
##  8     0 female      2 10-20              -3    32          -0.0938
##  9     0 female      2 20-30              -3    25          -0.12  
## 10     1 female      1 30+                -1     8          -0.125 
## # … with 26 more rows

Про які фішки ми забули?

train %>%
  group_by(FamilySize, Title,Pclass,Fare2) %>%
  summarise(percent_survived = sum(as.numeric(Survived) - 1) / n()) %>%
  arrange(desc(percent_survived))

## # A tibble: 135 x 5
## # Groups:   FamilySize, Title, Pclass [78]
##    FamilySize Title Pclass Fare2 percent_survived
##         <dbl> <chr>  <int> <chr>            <dbl>
##  1          1 Col        1 30+                  0
##  2          1 Dr         1 20-30                0
##  3          1 Lady       1 30+                  0
##  4          1 Miss       1 30+                  0
##  5          1 Miss       2 20-30                0
##  6          1 Miss       2 30+                  0
##  7          1 Mrs        1 20-30                0
##  8          1 Mrs        1 30+                  0
##  9          1 Sir        1 30+                  0
## 10          2 Lady       1 30+                  0
## # … with 125 more rows
…
